{
  "variables": {
    "page": 1
  },
  "loading": false,
  "networkStatus": 7,
  "episodesList": {
    "title": "Terrible, Thanks for Asking®",
    "results": {
      "nextPage": 2,
      "pageSize": 10,
      "totalPages": 8,
      "totalItems": 80,
      "previousPage": null,
      "currentPage": 1,
      "items": [
        {
          "id": "01D5CZQHFKGEJV9DS32DB2F9M7",
          "title": "Episode #62: The Bride Price",
          "publishDate": "2019-02-19T17:20:10+00:00",
          "description": "{\"type\":\"doc\",\"content\":[{\"type\":\"paragraph\",\"content\":[{\"text\":\"Every wedding has a at least a little bit of drama. \",\"type\":\"text\"}]}]}",
          "canonicalSlug": "2019/02/19/episode-62-the-bride-price",
          "primaryVisuals": {
            "thumbnail": null,
            "__typename": "PrimaryVisual"
          },
          "audio": [
            {
              "title": "Archive Portal",
              "durationHms": null,
              "encodings": [
                {
                  "httpFilePath": "https://play-dev.publicradio.org/unreplaced_ua/o/devel/minnesota/archive_portal/10000.mp3",
                  "__typename": "Encoding"
                }
              ],
              "__typename": "Audio"
            },
            {
              "title": "The Show -  3pisode",
              "durationHms": null,
              "encodings": [
                {
                  "httpFilePath": "https://play-dev.publicradio.org/unreplaced_ua/o/devel/foo/foo2_20190403_2_64.mp3",
                  "__typename": "Encoding"
                }
              ],
              "__typename": "Audio"
            }
          ],
          "__typename": "Episode"
        },
        {
          "id": "01D5CZQTRNTD0EA3BZSAQ0PV1G",
          "title": "Episode #64: WWJD?",
          "publishDate": "2019-03-05T15:20:31+00:00",
          "description": "{\"type\":\"doc\",\"content\":[{\"type\":\"paragraph\",\"content\":[{\"text\":\"Jenny and Michelle are twins. Twin telepathy, switching places, the whole deal. Pat and Teddy are big parts of Jenny and Michelle’s lives, but no one has been HERE before. You can catch up with TTFA on Instagram, Twitter and Facebook using @ttfapodcast. Nora’s Instagram is @noraborealis. You can pre-order Nora’s new book – No […]\",\"type\":\"text\"}]}]}",
          "canonicalSlug": "2019/03/05/episode-64-wwjd",
          "primaryVisuals": {
            "thumbnail": {
              "aspectRatios": {
                "normal": {
                  "instances": [
                    {
                      "url": "https://img.apmcdn.org/dev/e892a1a7ba08d41f14d4552ec41a69c8450f278b/normal/7466a7-2019-02-columbo.jpg",
                      "width": 400,
                      "height": 301,
                      "__typename": "Instance"
                    },
                    {
                      "url": "https://img.apmcdn.org/dev/e892a1a7ba08d41f14d4552ec41a69c8450f278b/normal/18e1e6-2019-02-columbo.jpg",
                      "width": 600,
                      "height": 451,
                      "__typename": "Instance"
                    }
                  ],
                  "__typename": "AspectRatio"
                },
                "portrait": {
                  "instances": [
                    {
                      "width": 400,
                      "height": 500,
                      "url": "https://img.apmcdn.org/dev/e892a1a7ba08d41f14d4552ec41a69c8450f278b/portrait/b0b5ae-2019-02-columbo.jpg",
                      "__typename": "Instance"
                    },
                    {
                      "width": 600,
                      "height": 750,
                      "url": "https://img.apmcdn.org/dev/e892a1a7ba08d41f14d4552ec41a69c8450f278b/portrait/90ba1b-2019-02-columbo.jpg",
                      "__typename": "Instance"
                    }
                  ],
                  "__typename": "AspectRatio"
                },
                "widescreen": {
                  "instances": [
                    {
                      "width": 400,
                      "height": 225,
                      "url": "https://img.apmcdn.org/dev/e892a1a7ba08d41f14d4552ec41a69c8450f278b/widescreen/055467-2019-02-columbo.jpg",
                      "__typename": "Instance"
                    },
                    {
                      "width": 600,
                      "height": 337,
                      "url": "https://img.apmcdn.org/dev/e892a1a7ba08d41f14d4552ec41a69c8450f278b/widescreen/c460ca-2019-02-columbo.jpg",
                      "__typename": "Instance"
                    }
                  ],
                  "__typename": "AspectRatio"
                },
                "__typename": "AspectRatioList"
              },
              "contentArea": "TBTL targeted by Rasmussen",
              "dateTaken": null,
              "dateline": "",
              "fallback": "https://img.apmcdn.org/dev/e892a1a7ba08d41f14d4552ec41a69c8450f278b/uncropped/1b9835-2019-02-columbo.jpg",
              "longCaption": "Just one more thing...",
              "shortCaption": "Columbo.jpg",
              "xid": 300233,
              "__typename": "Image"
            },
            "__typename": "PrimaryVisual"
          },
          "audio": [],
          "__typename": "Episode"
        },
        {
          "id": "01D5CZQM6E7EDQSCWWY0PR5SWT",
          "title": "Episode #63: The Intended Outcome",
          "publishDate": "2019-02-26T11:48:40+00:00",
          "description": "{\"type\":\"doc\",\"content\":[{\"type\":\"paragraph\",\"content\":[{\"text\":\"Deya and Sandra are two moms who are stuck at the intersection of maternal love and uncertainty.\",\"type\":\"text\"}]}]}",
          "canonicalSlug": "2019/02/26/episode-63-the-intended-outcome",
          "primaryVisuals": {
            "thumbnail": {
              "aspectRatios": {
                "normal": {
                  "instances": [
                    {
                      "url": "https://img.apmcdn.org/dev/8bb4ac84c7fb4913f4c1a4d98632449c97bef4e7/normal/768772-2019-02-show-pic-andrew-hawaii.jpg",
                      "width": 400,
                      "height": 301,
                      "__typename": "Instance"
                    },
                    {
                      "url": "https://img.apmcdn.org/dev/8bb4ac84c7fb4913f4c1a4d98632449c97bef4e7/normal/e1f195-2019-02-show-pic-andrew-hawaii.jpg",
                      "width": 600,
                      "height": 451,
                      "__typename": "Instance"
                    },
                    {
                      "url": "https://img.apmcdn.org/dev/8bb4ac84c7fb4913f4c1a4d98632449c97bef4e7/normal/6951ad-2019-02-show-pic-andrew-hawaii.jpg",
                      "width": 1000,
                      "height": 752,
                      "__typename": "Instance"
                    },
                    {
                      "url": "https://img.apmcdn.org/dev/8bb4ac84c7fb4913f4c1a4d98632449c97bef4e7/normal/87bd20-2019-02-show-pic-andrew-hawaii.jpg",
                      "width": 1400,
                      "height": 1053,
                      "__typename": "Instance"
                    },
                    {
                      "url": "https://img.apmcdn.org/dev/8bb4ac84c7fb4913f4c1a4d98632449c97bef4e7/normal/cf512a-2019-02-show-pic-andrew-hawaii.jpg",
                      "width": 2000,
                      "height": 1504,
                      "__typename": "Instance"
                    }
                  ],
                  "__typename": "AspectRatio"
                },
                "portrait": {
                  "instances": [
                    {
                      "width": 400,
                      "height": 500,
                      "url": "https://img.apmcdn.org/dev/8bb4ac84c7fb4913f4c1a4d98632449c97bef4e7/portrait/c7b892-2019-02-show-pic-andrew-hawaii.jpg",
                      "__typename": "Instance"
                    },
                    {
                      "width": 600,
                      "height": 750,
                      "url": "https://img.apmcdn.org/dev/8bb4ac84c7fb4913f4c1a4d98632449c97bef4e7/portrait/9840f7-2019-02-show-pic-andrew-hawaii.jpg",
                      "__typename": "Instance"
                    },
                    {
                      "width": 1000,
                      "height": 1250,
                      "url": "https://img.apmcdn.org/dev/8bb4ac84c7fb4913f4c1a4d98632449c97bef4e7/portrait/99a0f0-2019-02-show-pic-andrew-hawaii.jpg",
                      "__typename": "Instance"
                    },
                    {
                      "width": 1400,
                      "height": 1750,
                      "url": "https://img.apmcdn.org/dev/8bb4ac84c7fb4913f4c1a4d98632449c97bef4e7/portrait/dba2bc-2019-02-show-pic-andrew-hawaii.jpg",
                      "__typename": "Instance"
                    },
                    {
                      "width": 2000,
                      "height": 2500,
                      "url": "https://img.apmcdn.org/dev/8bb4ac84c7fb4913f4c1a4d98632449c97bef4e7/portrait/1bf81c-2019-02-show-pic-andrew-hawaii.jpg",
                      "__typename": "Instance"
                    }
                  ],
                  "__typename": "AspectRatio"
                },
                "widescreen": {
                  "instances": [
                    {
                      "width": 400,
                      "height": 225,
                      "url": "https://img.apmcdn.org/dev/8bb4ac84c7fb4913f4c1a4d98632449c97bef4e7/widescreen/f7f3c8-2019-02-show-pic-andrew-hawaii.jpg",
                      "__typename": "Instance"
                    },
                    {
                      "width": 600,
                      "height": 337,
                      "url": "https://img.apmcdn.org/dev/8bb4ac84c7fb4913f4c1a4d98632449c97bef4e7/widescreen/5e55c3-2019-02-show-pic-andrew-hawaii.jpg",
                      "__typename": "Instance"
                    },
                    {
                      "width": 1000,
                      "height": 562,
                      "url": "https://img.apmcdn.org/dev/8bb4ac84c7fb4913f4c1a4d98632449c97bef4e7/widescreen/259b86-2019-02-show-pic-andrew-hawaii.jpg",
                      "__typename": "Instance"
                    },
                    {
                      "width": 1400,
                      "height": 786,
                      "url": "https://img.apmcdn.org/dev/8bb4ac84c7fb4913f4c1a4d98632449c97bef4e7/widescreen/eb51fc-2019-02-show-pic-andrew-hawaii.jpg",
                      "__typename": "Instance"
                    },
                    {
                      "width": 2000,
                      "height": 1124,
                      "url": "https://img.apmcdn.org/dev/8bb4ac84c7fb4913f4c1a4d98632449c97bef4e7/widescreen/1bb687-2019-02-show-pic-andrew-hawaii.jpg",
                      "__typename": "Instance"
                    }
                  ],
                  "__typename": "AspectRatio"
                },
                "__typename": "AspectRatioList"
              },
              "contentArea": "TBTL",
              "dateTaken": "2019-02-21T00:00:00+00:00",
              "dateline": "",
              "fallback": "https://img.apmcdn.org/dev/8bb4ac84c7fb4913f4c1a4d98632449c97bef4e7/uncropped/7cde69-2019-02-show-pic-andrew-hawaii.jpg",
              "longCaption": "Andrew vacations",
              "shortCaption": "Show-Pic-Andrew-Hawaii.jpg",
              "xid": 300223,
              "__typename": "Image"
            },
            "__typename": "PrimaryVisual"
          },
          "audio": [
            {
              "title": "63: The Intended Outcome",
              "durationHms": null,
              "encodings": [
                {
                  "httpFilePath": "https://download.publicradio.org/podcast/americanpublicmedia/podcasts/ttfa/2019/02/ttfa_20190226_128.mp3",
                  "__typename": "Encoding"
                }
              ],
              "__typename": "Audio"
            }
          ],
          "__typename": "Episode"
        },
        {
          "id": "01D5CZQES2JSXPSDRNVD1PKAD4",
          "title": "Episode #61: A Bailey Moment",
          "publishDate": "2019-02-12T11:37:21+00:00",
          "description": "{\"type\":\"doc\",\"content\":[{\"type\":\"paragraph\",\"content\":[{\"text\":\"Parenting is *never* what you expect it to be. Maiya knows that as well as anyone.\",\"type\":\"text\"}]}]}",
          "canonicalSlug": "2019/02/12/episode-61-a-bailey-moment",
          "primaryVisuals": {
            "thumbnail": null,
            "__typename": "PrimaryVisual"
          },
          "audio": [
            {
              "title": "61: A Bailey Moment",
              "durationHms": null,
              "encodings": [
                {
                  "httpFilePath": "https://download.publicradio.org/podcast/americanpublicmedia/podcasts/ttfa/2019/02/ttfa_20190212_128.mp3",
                  "__typename": "Encoding"
                }
              ],
              "__typename": "Audio"
            }
          ],
          "__typename": "Episode"
        },
        {
          "id": "01D5CZQPXRC100HJE1NRFA7XEN",
          "title": "Episode #60: The Treatment",
          "publishDate": "2019-02-05T16:28:19+00:00",
          "description": "{\"type\":\"doc\",\"content\":[{\"type\":\"paragraph\",\"content\":[{\"text\":\"Rachel Haines makes everything look easy. Even when things are very very very not easy. A gymnast, a competitor, and a champion, Rachel endures and survives… with a smile. Rachel’s book is out April 12. You can pre-order it here. You can catch up with TTFA on Instagram, Twitter and Facebook using @ttfapodcast. Nora’s Instagram […]\",\"type\":\"text\"}]}]}",
          "canonicalSlug": "2019/02/05/episode-60-the-treatment",
          "primaryVisuals": {
            "thumbnail": null,
            "__typename": "PrimaryVisual"
          },
          "audio": [
            {
              "title": "60: The Treatment",
              "durationHms": null,
              "encodings": [
                {
                  "httpFilePath": "https://download.publicradio.org/podcast/americanpublicmedia/podcasts/ttfa/2019/02/ttfa_20190205_128.mp3",
                  "__typename": "Encoding"
                }
              ],
              "__typename": "Audio"
            }
          ],
          "__typename": "Episode"
        },
        {
          "id": "01D5CZQC3BXJ9VW8XBWRF1WFP4",
          "title": "Episode #59: Where Are They Now?",
          "publishDate": "2019-01-29T16:07:01+00:00",
          "description": "{\"type\":\"doc\",\"content\":[{\"type\":\"paragraph\",\"content\":[{\"text\":\"Our episodes end. Obviously. But the lives whose stories we tell… they keep going. So today we are going to get back in touch with some old friends and see what has happened and what they’ve been up to since we first got to know them. WARNING – spoilers ahead for some past episodes of […]\",\"type\":\"text\"}]}]}",
          "canonicalSlug": "2019/01/29/episode-59-where-are-they-now",
          "primaryVisuals": {
            "thumbnail": null,
            "__typename": "PrimaryVisual"
          },
          "audio": [
            {
              "title": "59: Where Are They Now?",
              "durationHms": null,
              "encodings": [
                {
                  "httpFilePath": "https://download.publicradio.org/podcast/americanpublicmedia/podcasts/ttfa/2019/01/ttfa_20190129_128.mp3",
                  "__typename": "Encoding"
                }
              ],
              "__typename": "Audio"
            }
          ],
          "__typename": "Episode"
        },
        {
          "id": "01D5CZQ9D8Q1K4AH2WSATAPKX3",
          "title": "Listen to This: The Slowdown",
          "publishDate": "2019-01-23T17:09:31+00:00",
          "description": "{\"type\":\"doc\",\"content\":[{\"type\":\"paragraph\",\"content\":[{\"text\":\"Need a slight daily readjustment of your point of view? A moment to focus and meditate on something besides your to-do list? We want to introduce you to The Slowdown. It’s a podcast we love where every weekday, U.S. Poet Laureate Tracy K. Smith delivers a different way to see the world — through poetry. […]\",\"type\":\"text\"}]}]}",
          "canonicalSlug": "2019/01/23/listen-to-this-the-slowdown",
          "primaryVisuals": {
            "thumbnail": null,
            "__typename": "PrimaryVisual"
          },
          "audio": [
            {
              "title": "Listen to This: The Slowdown",
              "durationHms": null,
              "encodings": [
                {
                  "httpFilePath": "https://download.publicradio.org/podcast/americanpublicmedia/podcasts/ttfa/2019/01/ttfa_20190123_128.mp3",
                  "__typename": "Encoding"
                }
              ],
              "__typename": "Audio"
            }
          ],
          "__typename": "Episode"
        },
        {
          "id": "01D5CZQ3YD6J5JXB89JGB023GA",
          "title": "Episode #58: Happy(ish) Holidays III",
          "publishDate": "2018-11-27T13:41:09+00:00",
          "description": "{\"type\":\"doc\",\"content\":[{\"type\":\"paragraph\",\"content\":[{\"text\":\"In our final episode of the season we are talking about… The Holidays. Which are a time of reflection and anticipation. Of looking back at what we did… and what was done to us. We will hear from comedian and writer Alyssa Limperis and the shine-it-up Holiday letter she wrote the year her dad died […]\",\"type\":\"text\"}]}]}",
          "canonicalSlug": "2018/11/27/episode-58-happyish-holidays-iii",
          "primaryVisuals": {
            "thumbnail": null,
            "__typename": "PrimaryVisual"
          },
          "audio": [
            {
              "title": "58: Happy(ish) Holidays III",
              "durationHms": null,
              "encodings": [
                {
                  "httpFilePath": "https://download.publicradio.org/podcast/americanpublicmedia/podcasts/ttfa/2018/11/ttfa_20181127_128.mp3",
                  "__typename": "Encoding"
                }
              ],
              "__typename": "Audio"
            }
          ],
          "__typename": "Episode"
        },
        {
          "id": "01D5CZQ168J106B5AWA0NYV4Z3",
          "title": "Episode #57: Don’t Should Yourself",
          "publishDate": "2018-11-20T11:04:42+00:00",
          "description": "{\"type\":\"doc\",\"content\":[{\"type\":\"paragraph\",\"content\":[{\"text\":\"Two things that grief brings you: Kleenex and hotdish. Two other things? Anger and people telling you what you should do. This week, stories about grief, anger and Hans’ Gramma, written and read by Nora. You can pre-order Nora’s new book – “No Happy Endings” – from her website at noraborealis.com/book You can catch up […]\",\"type\":\"text\"}]}]}",
          "canonicalSlug": "2018/11/20/episode-57-dont-should-yourself",
          "primaryVisuals": {
            "thumbnail": null,
            "__typename": "PrimaryVisual"
          },
          "audio": [
            {
              "title": "57: Don't Should Yourself",
              "durationHms": null,
              "encodings": [
                {
                  "httpFilePath": "https://download.publicradio.org/podcast/americanpublicmedia/podcasts/ttfa/2018/11/ttfa_20181120_128.mp3",
                  "__typename": "Encoding"
                }
              ],
              "__typename": "Audio"
            }
          ],
          "__typename": "Episode"
        },
        {
          "id": "01D5CZPYFKAB2W298BYMVYNKQF",
          "title": "Episode #56: Birthright",
          "publishDate": "2018-11-13T11:50:34+00:00",
          "description": "{\"type\":\"doc\",\"content\":[{\"type\":\"paragraph\",\"content\":[{\"text\":\"Sheridan’s dad died by suicide when she was 6 years old. And for years she feared that was his legacy. And her birthright. You can catch up with TTFA on Instagram, Twitter and Facebook using @ttfapodcast. Nora’s Instagram is @noraborealis. Check out our sponsors this week: Talkspace — talkspace.com/ttfa Third Love — thirdlove.com/terrible For Hers […]\",\"type\":\"text\"}]}]}",
          "canonicalSlug": "2018/11/13/episode-56-birthright",
          "primaryVisuals": {
            "thumbnail": null,
            "__typename": "PrimaryVisual"
          },
          "audio": [
            {
              "title": "56: Birthright",
              "durationHms": null,
              "encodings": [
                {
                  "httpFilePath": "https://download.publicradio.org/podcast/americanpublicmedia/podcasts/ttfa/2018/11/ttfa_20181113_128.mp3",
                  "__typename": "Encoding"
                }
              ],
              "__typename": "Audio"
            }
          ],
          "__typename": "Episode"
        }
      ],
      "__typename": "ResultsPage"
    },
    "__typename": "Collection"
  }
}